01/25/22 16:52

ModuleNotFoundError while loading 'spark.py': No module named 'pyspark'

-------------------------------------------------------------------------------

01/25/22 17:25

Problem 1 (5 points):
Score += 5

Problem 2 (5 points):
Score += 5

Problem 3 (10 points):
Score += 10

Problem 4 (10 points):
Score += 10

Problem 5 (15 points):
Score += 15

Code Quality (5 points):
Score += 5

Total score: 50/50 = 100.0%

Excellent!

-------------------------------------------------------------------------------

