09/21/21 14:54

Problem 1 (10 points):
Score += 10

Problem 2 (10 points):
Score += 10

Problem 3 (10 points):
Score += 10

Problem 4 (15 points):
Score += 15

Code Quality (5 points):
Score += 5

Total score: 50/50 = 100.0%

Excellent!

-------------------------------------------------------------------------------

