10/19/21 00:30

Problem 1 (5 points):
Score += 5

Problem 2 (5 points):
Score += 5

Problem 3 (5 points):
Score += 5

Problems 4 & 5 (10 points):
Score += 10

Problem 6 (5 points):
Score += 5

Problem 7 (10 points):
no randomness
Score += 6

Problem 8 (5 points):
Score += 5

Code Quality (5 points):
Score += 5

Total score: 46/50 = 92.0%

Great job!

-------------------------------------------------------------------------------

