09/13/21 13:25

Problem 1 (5 points):
Score += 5

Problem 2 (10 points):
Score += 10

Problem 3 (10 points):
incorrect percent
Score += 8

Problem 4 (5 points):
Score += 5

Problem 5 (5 points):
Score += 5

Problem 6 (10 points):
Score += 10

Code Quality (5 points):
Score += 5

Total score: 48/50 = 96.0%

Great job!

-------------------------------------------------------------------------------

